<svg xmlns="http://www.w3.org/2000/svg" xmlns:xlink="http://www.w3.org/1999/xlink" width="103" height="103" viewBox="0 0 103 103">
  <defs>
    <filter id="Ellipse_81" x="0" y="0" width="103" height="103" filterUnits="userSpaceOnUse">
      <feOffset dx="5" dy="5" input="SourceAlpha"/>
      <feGaussianBlur stdDeviation="12.5" result="blur"/>
      <feFlood flood-color="#0474c0" flood-opacity="0.047"/>
      <feComposite operator="in" in2="blur"/>
      <feComposite in="SourceGraphic"/>
    </filter>
  </defs>
  <g id="Group_78321" data-name="Group 78321" transform="translate(32.652 32.851)">
    <g transform="matrix(1, 0, 0, 1, -32.65, -32.85)" filter="url(#Ellipse_81)">
      <circle id="Ellipse_81-2" data-name="Ellipse 81" cx="14" cy="14" r="14" transform="translate(32.5 32.5)" fill="#fff"/>
    </g>
    <path id="Call" d="M6.985,11.847C1.558,7,2.33,4.778,2.9,4.063c.073-.116,1.885-2.538,3.827-1.117,4.82,3.546-1.282,3.045,2.766,6.661s3.487-1.835,7.457,2.47c1.591,1.735-1.121,3.354-1.25,3.419C14.9,16.007,12.414,16.7,6.985,11.847Z" transform="translate(4.028 5.007)" fill="#0474c0" fill-rule="evenodd"/>
  </g>
</svg>
