<svg xmlns="http://www.w3.org/2000/svg" xmlns:xlink="http://www.w3.org/1999/xlink" width="103" height="103" viewBox="0 0 103 103">
  <defs>
    <filter id="Ellipse_81" x="0" y="0" width="103" height="103" filterUnits="userSpaceOnUse">
      <feOffset dx="5" dy="5" input="SourceAlpha"/>
      <feGaussianBlur stdDeviation="12.5" result="blur"/>
      <feFlood flood-color="#15d4ad" flood-opacity="0.051"/>
      <feComposite operator="in" in2="blur"/>
      <feComposite in="SourceGraphic"/>
    </filter>
  </defs>
  <g id="Group_78322" data-name="Group 78322" transform="translate(32.652 32.658)">
    <g transform="matrix(1, 0, 0, 1, -32.65, -32.66)" filter="url(#Ellipse_81)">
      <circle id="Ellipse_81-2" data-name="Ellipse 81" cx="14" cy="14" r="14" transform="translate(32.5 32.5)" fill="#fff"/>
    </g>
    <path id="Icon_ionic-logo-whatsapp" data-name="Icon ionic-logo-whatsapp" d="M9.336,2.25A6.807,6.807,0,0,0,2.5,9.03a6.71,6.71,0,0,0,.981,3.5L2.25,16.169l3.783-1.2A6.845,6.845,0,0,0,16.169,9.03,6.807,6.807,0,0,0,9.336,2.25Zm3.4,9.355a1.765,1.765,0,0,1-1.209.779c-.32.017-.33.248-2.077-.511A7.129,7.129,0,0,1,6.568,9.15a3.351,3.351,0,0,1-.645-1.816,1.936,1.936,0,0,1,.665-1.421.669.669,0,0,1,.473-.2c.138,0,.227,0,.329,0s.255-.021.387.331.449,1.216.489,1.3a.317.317,0,0,1,0,.3,1.187,1.187,0,0,1-.185.282c-.091.1-.192.219-.273.294s-.185.173-.09.35a5.229,5.229,0,0,0,.925,1.235,4.768,4.768,0,0,0,1.37.911c.171.093.274.083.38-.029s.455-.489.578-.658.238-.136.4-.072,1,.514,1.17.607.286.141.327.214A1.435,1.435,0,0,1,12.734,11.605Z" transform="translate(5.03 5.316)" fill="#15d4ad"/>
  </g>
</svg>
